%YAML 1.1
%TAG !u! tag:unity3d.com,2011:
--- !u!78 &1
TagManager:
  serializedVersion: 2
  tags:
  - killbox
  - Enemy
  - Wall
  layers:
  - Default
  - TransparentFX
  - Ignore Raycast
  - 
  - Water
  - UI
  - 
  - 
  - Ground
  - Player
  - 
  - 
  - 
  - 
  - 
  - 
  - 
  - 
  - 
  - 
  - 
  - 
  - 
  - 
  - 
  - 
  - 
  - 
  - 
  - 
  - 
  - 
  m_SortingLayers:
  - name: Parallax 9
    uniqueID: 2958528373
    locked: 0
  - name: Parallax 8
    uniqueID: 724078273
    locked: 0
  - name: Parallax 7
    uniqueID: 3240138793
    locked: 0
  - name: Parallax 6
    uniqueID: 456203345
    locked: 0
  - name: Parallax 5
    uniqueID: 2351374931
    locked: 0
  - name: Parallax 4
    uniqueID: 907501029
    locked: 0
  - name: Parallax 3
    uniqueID: 2773925909
    locked: 0
  - name: Parallax 2
    uniqueID: 3112679043
    locked: 0
  - name: Parallax 1
    uniqueID: 1706177793
    locked: 0
  - name: Default
    uniqueID: 0
    locked: 0
